…
## **MSMT** data structure

The data is collected on a regular basis using standardized forms filled
in by directors of schools and other educational institutions.

There are different types of forms for different types of
establishments, each with a unique code. Function **msmt_forms** was
designed to facilitate the browsing of available forms and variables.
First, we can look at what forms there are:

``` r
all_forms <-  msmt_forms(language = "en")
all_forms
#> # A tibble: 23 x 5
#>    form  vykaz name                                                  first  last
#>    <chr> <chr> <chr>                                                 <int> <int>
#>  1 S01   01    Kindergarten report                                    2015  2022
#>  2 Z02   02    Report on the after-school club                        2015  2022
#>  3 M03   03    Primary school report                                  2015  2022
#>  4 S04   04    Statement on the nursery-primary school at the healt~  2015  2022
#>  5 S4c   4c    Report on the preparatory class of primary school an~  2015  2022
#>  6 S05   05    Report on applicants enrolled and admitted to the fi~  2015  2019
#>  7 M08   08    Secondary school report                                2015  2022
#>  8 M09   09    Statement about the Conservatory                       2015  2022
#>  9 M10   10    Statement of the higher vocational school              2015  2022
#> 10 R13   13    Report on school directorates                          2015  2022
#> # ... with 13 more rows
```
…
